5.505060404539108276e-02,1.566271632909774780e-01,2.013657391071319580e-01,7.481147348880767822e-02,2.771235816180706024e-02
1.164083257317543030e-01,2.052534669637680054e-01,2.312670350074768066e-01,6.631324440240859985e-02,9.359278529882431030e-02
-6.873518973588943481e-02,-7.037694752216339111e-02,-1.730656065046787262e-02,1.579599529504776001e-01,1.416490972042083740e-01
-6.621833890676498413e-02,-2.813753485679626465e-01,-4.906265437602996826e-02,-1.177093479782342911e-02,-1.548363547772169113e-02
-1.509895622730255127e-01,-1.720672994852066040e-01,-2.036468833684921265e-01,-1.937873214483261108e-01,-2.257943712174892426e-02
