-1.985105127096176147e-02,2.271900326013565063e-02,3.833902627229690552e-02,1.782478541135787964e-01,2.047996371984481812e-01
3.059985488653182983e-02,-2.195088658481836319e-03,-1.242657229304313660e-01,-6.885521858930587769e-02,8.619632571935653687e-02
-4.688891023397445679e-02,-1.784700155258178711e-01,-4.083170294761657715e-01,-2.996456325054168701e-01,-7.888788729906082153e-02
1.436090767383575439e-01,1.383836418390274048e-01,-1.359526906162500381e-02,-8.058717846870422363e-02,-1.709728389978408813e-01
1.075597703456878662e-01,2.313482463359832764e-01,1.749015748500823975e-01,1.892666369676589966e-01,1.884280145168304443e-02
