-8.021122962236404419e-02,-2.690722942352294922e-01,-2.193057388067245483e-01,-2.664321288466453552e-02,-4.475650377571582794e-03
-2.143961489200592041e-01,-1.869204193353652954e-01,-4.083091393113136292e-02,1.224052309989929199e-01,2.595294080674648285e-02
2.246208488941192627e-01,2.016891986131668091e-01,1.680683791637420654e-01,9.163199365139007568e-02,-9.902897290885448456e-04
1.508121341466903687e-01,2.419859021902084351e-01,6.200342625379562378e-02,-3.344718366861343384e-02,3.585989773273468018e-02
6.871894001960754395e-02,-2.061341702938079834e-02,-5.299141630530357361e-02,-3.542191535234451294e-02,-2.307611703872680664e-02
