-3.098454326391220093e-02,1.215560138225555420e-01,-3.916854038834571838e-02,-1.402397751808166504e-01,-2.530127167701721191e-01
4.697135463356971741e-02,1.364939510822296143e-01,1.285057812929153442e-01,-3.439169377088546753e-02,-2.482976019382476807e-01
-2.943284623324871063e-02,6.003194302320480347e-02,1.484419554471969604e-01,6.723282486200332642e-02,-7.110685855150222778e-02
7.657458633184432983e-02,-5.319624021649360657e-02,1.087610274553298950e-01,1.659853160381317139e-01,1.512406766414642334e-01
9.637285768985748291e-02,-7.824487239122390747e-02,8.020596206188201904e-02,6.943210214376449585e-02,1.773833036422729492e-01
