1.136215031147003174e-01,1.542125195264816284e-01,7.505475729703903198e-02,-1.459595263004302979e-01,-1.439050287008285522e-01
1.089466214179992676e-01,6.808551400899887085e-02,-7.273501157760620117e-02,-1.496045142412185669e-01,5.225421860814094543e-02
1.346291601657867432e-01,2.796822600066661835e-02,-9.719315171241760254e-02,1.083519905805587769e-01,2.006740681827068329e-02
-2.094966918230056763e-02,1.634326064959168434e-03,-1.323844119906425476e-02,1.152486652135848999e-01,-5.350006744265556335e-03
8.661431074142456055e-02,1.185597553849220276e-01,1.350017488002777100e-01,1.233866289258003235e-01,-4.406488151289522648e-04
