-2.550060302019119263e-02,8.311751484870910645e-02,1.518682539463043213e-01,-9.664220362901687622e-02,-1.122439205646514893e-01
-1.181183084845542908e-01,1.235920041799545288e-01,1.351352930068969727e-01,-9.006910026073455811e-02,1.130526065826416016e-01
-9.825439192354679108e-03,7.775883190333843231e-03,-2.024978399276733398e-02,7.298298180103302002e-02,8.951528370380401611e-02
3.804634511470794678e-02,9.201568365097045898e-02,2.561218105256557465e-03,7.848642021417617798e-02,1.357212066650390625e-01
3.566359728574752808e-02,1.160383895039558411e-01,2.449422143399715424e-02,-8.622704446315765381e-02,1.092013865709304810e-01
